#generated scenario number: 35

param renewablePower :=  1 223.638195106 2 352.708421576 3 425.486777565 4 236.044078126 5 119.299702264 6 15.9420725789 7 560.908220746 8 76.8510194161 9 368.510075929 10 631.005723526 11 544.4347813 12 339.352290515 13 460.437214084 14 542.643237082 15 226.095024256 16 329.315211463 17 573.836616109 18 453.226742716 19 75.7997625673 20 294.209114973 21 514.471406901 22 467.505700766 23 20.5439215581 24 230.932529638 25 385.317964557 26 429.540453156 27 356.499359588 28 461.855107717 29 433.648867963 30 195.174364827 31 103.479841967 32 458.966054761 33 404.910573277 34 338.036080516 35 197.711534955 36 283.608167428 37 361.504888923 38 577.659295328 39 507.316925609 40 398.209207174 41 9.28256447471 42 555.121486116 43 540.328243949 44 353.583488481 45 172.243201082 46 360.432143968 47 116.231040131 48 247.234574744 49 365.958872468 50 127.118318551 51 154.789874205 52 184.932780095 53 470.46194405 54 540.561780996 55 133.506466162 56 402.134382518 57 77.9497456769 58 198.474603514 59 332.207767032 60 534.756617411 61 235.843433179 62 343.090313727 63 491.451985714 64 551.547115564 65 184.897403969 66 448.55086505 67 583.669060575 68 474.354264294 69 307.059200201 70 604.872451556 71 79.4811381863 72 170.757655863 73 496.607473729 74 29.852439554 75 172.950942194 76 302.771811754 77 232.082963653 78 327.815256375 79 457.711567117 80 210.308738824 81 568.255408462 82 238.383525124 83 478.850822211 84 281.285192713 85 128.482884402 86 67.449757173 87 303.122950817 88 18.6527450733 89 577.724722103 90 148.867798571 91 41.3244075541 92 424.225235628 93 425.673375896 94 413.125505602 95 212.193710137 96 137.006943825 ;

# total: 31024.2474905 avg: 323.169244693