#generated scenario number: 5

param renewablePower :=  1 359.76730264 2 392.560293588 3 123.757938906 4 191.194870177 5 313.413988952 6 326.483634945 7 624.206892445 8 43.097756154 9 185.302679417 10 195.47927973 11 385.691284995 12 191.100077682 13 170.788545549 14 360.539841509 15 381.435575779 16 252.874314658 17 516.770660782 18 639.190289114 19 372.117025653 20 297.474855837 21 55.4761971812 22 120.193050981 23 65.0787765014 24 414.455356741 25 288.150041776 26 19.6530210983 27 268.464821455 28 489.963213203 29 65.8620403209 30 165.932537187 31 390.298856828 32 183.812164234 33 294.075523373 34 217.117780715 35 398.834911539 36 428.893900269 37 320.546279142 38 313.770571056 39 211.486258883 40 428.726982448 41 96.9647115397 42 481.786403762 43 188.86695747 44 605.246008865 45 87.5128975776 46 351.660294678 47 596.590878608 48 141.713292209 49 183.57300084 50 379.467464057 51 292.172303013 52 363.683107163 53 494.339624759 54 467.954036144 55 372.369267908 56 610.048900302 57 187.080196513 58 356.160603346 59 248.546030216 60 46.2947210374 61 584.523081146 62 487.245703986 63 5.69770169168 64 148.75480216 65 516.995469554 66 597.275256728 67 570.083683969 68 49.4413960631 69 31.6824869005 70 419.476308642 71 81.9863113221 72 318.455682341 73 299.165503898 74 345.804769162 75 622.325581393 76 583.730201912 77 636.985771153 78 262.84255411 79 569.870385103 80 98.7585421928 81 573.670567891 82 324.993357372 83 542.244993278 84 61.8775248835 85 223.233203383 86 312.756706323 87 461.059483196 88 20.7442761395 89 272.073188505 90 445.449791474 91 122.446310813 92 288.470347859 93 163.827715397 94 328.026945893 95 408.300240758 96 416.412246321 ;

# total: 30212.7581864 avg: 314.716231108